\BOOKMARK [1][-]{section*.1}{\376\377\000P\000r\000o\000j\000e\000c\000t\000e\000\040\000A\000S\000I\000X\000\040\0002\000k\0002\0002}{}% 1
\BOOKMARK [2][-]{section*.2}{\376\377\000E\000s\000c\000o\000l\000a\000\040\000D\000e\000l\000\040\000T\000r\000e\000b\000a\000l\000l}{section*.1}% 2
\BOOKMARK [3][-]{section*.3}{\376\377\0002\000H\000I\000S\000X\000\040\0002\0000\0002\0001\000-\0002\0000\0002\0002}{section*.2}% 3
\BOOKMARK [3][-]{section*.4}{\376\377\000A\000a\000r\000o\000n\000\040\000A\000n\000d\000a\000l\000\040\000\046\000\040\000C\000r\000i\000s\000t\000i\000a\000n\000\040\000C\000o\000n\000d\000o\000l\000o}{section*.2}% 4
\BOOKMARK [1][-]{section*.5}{\376\377\000C\000r\000y\000p\000t\000o\000S\000E\000C\000:\000\040\000`\000`\000C\000a\000r\000e\000f\000u\000l\000\040\000w\000h\000e\000r\000e\000\040\000y\000o\000u\000\040\000s\000t\000e\000p\000\040\000i\000n\000'\000'}{}% 5
\BOOKMARK [1][-]{section*.6}{\376\377\000I\000n\000d\000e\000x}{}% 6
\BOOKMARK [1][-]{section*.7}{\376\377\000K\000a\000l\000i\000\040\000L\000i\000n\000u\000x}{}% 7
\BOOKMARK [2][-]{section*.8}{\376\377\000E\000t\000t\000e\000r\000c\000a\000p}{section*.7}% 8
\BOOKMARK [1][-]{section*.9}{\376\377\000E\000l\000s\000\040\000a\000t\000a\000c\000s\000\040\000q\000u\000e\000\040\000e\000s\000\040\000p\000o\000d\000e\000n\000\040\000f\000e\000r\000\040\000a\000\040\000E\000t\000t\000e\000r\000c\000a\000p}{}% 9
\BOOKMARK [2][-]{section*.10}{\376\377\000E\000a\000v\000e\000s\000d\000r\000o\000p\000p\000i\000n\000g\000\040\000\050\000E\000s\000c\000o\000l\000t\000a\000r\000\040\000a\000t\000e\000n\000t\000a\000m\000e\000n\000t\000\051}{section*.9}% 10
\BOOKMARK [2][-]{section*.11}{\376\377\000F\000a\000l\000s\000i\000f\000i\000c\000a\000c\000i\000\363\000\040\000d\000e\000\040\000d\000i\000r\000e\000c\000c\000i\000o\000n\000s\000\040\000I\000P\000\040\000\050\000A\000d\000d\000r\000e\000s\000s\000\040\000S\000p\000o\000o\000f\000i\000n\000g\000\040\000o\000\040\000D\000N\000S\000\040\000C\000a\000c\000h\000e\000\040\000P\000o\000i\000s\000o\000n\000i\000n\000g\000\040\000+\000\040\000A\000R\000P\000\040\000S\000p\000o\000o\000f\000\051}{section*.9}% 11
\BOOKMARK [2][-]{section*.12}{\376\377\000A\000t\000a\000c\000\040\000d\000e\000\040\000d\000e\000n\000e\000g\000a\000c\000i\000\363\000\040\000d\000e\000\040\000s\000e\000r\000v\000e\000i\000\040\000\050\000D\000o\000S\000\051}{section*.9}% 12
\BOOKMARK [2][-]{section*.13}{\376\377\000A\000t\000a\000c\000\040\000M\000a\000n\000\040\000i\000n\000\040\000t\000h\000e\000\040\000M\000i\000d\000d\000l\000e}{section*.9}% 13
\BOOKMARK [1][-]{section*.14}{\376\377\000E\000x\000e\000m\000p\000l\000e\000\040\000p\000r\000\340\000c\000t\000i\000c\000\040\000d\000'\000E\000t\000t\000e\000r\000c\000a\000p}{}% 14
\BOOKMARK [2][-]{section*.15}{\376\377\000E\000x\000e\000m\000p\000l\000e\000\040\0001\000:\000\040\000U\000t\000i\000l\000i\000t\000z\000a\000n\000t\000\040\000s\000e\000t\000o\000o\000l\000k\000i\000t\000\040\000a\000\040\000K\000a\000l\000i\000\040\000L\000i\000n\000u\000x\000\040\000i\000\040\000E\000T\000T\000E\000R\000C\000A\000P}{section*.14}% 15
